Data Processing in R
…
flights_by_month <- group_by(flights, month)
class(flights)

## [1] "tbl_df"     "tbl"        "data.frame"

class(flights_by_month)

## [1] "grouped_df" "tbl_df"     "tbl"        "data.frame"

Grouping

print(flights_by_month, width = 60)

## # A tibble: 336,776 x 19
## # Groups:   month [12]
##     year month   day dep_time sched_dep_time dep_delay
##    <int> <int> <int>    <int>          <int>     <dbl>
##  1  2013     1     1      517            515         2
##  2  2013     1     1      533            529         4
##  3  2013     1     1      542            540         2
##  4  2013     1     1      544            545        -1
##  5  2013     1     1      554            600        -6
##  6  2013     1     1      554            558        -4
##  7  2013     1     1      555            600        -5
##  8  2013     1     1      557            600        -3
##  9  2013     1     1      557            600        -3
## 10  2013     1     1      558            600        -2
## #  with 336,766 more rows, and 13 more variables:
## #   arr_time <int>, sched_arr_time <int>, arr_delay <dbl>,
## #   carrier <chr>, flight <int>, tailnum <chr>,
## #   origin <chr>, dest <chr>, air_time <dbl>,
## #   distance <dbl>, hour <dbl>, minute <dbl>,
## #   time_hour <dttm>
…
Summarising 
 Multiple Groups

You can nest groups by specifying multiple grouping columns in group_by.

flights_by_date <- group_by(flights, month, day)

Summarising 
 Multiple Groups

## # A tibble: 336,776 x 19
## # Groups:   month, day [365]
##     year month   day dep_time sched_dep_time dep_delay arr_time sched_arr_time
##    <int> <int> <int>    <int>          <int>     <dbl>    <int>          <int>
##  1  2013     1     1      517            515         2      830            819
##  2  2013     1     1      533            529         4      850            830
##  3  2013     1     1      542            540         2      923            850
##  4  2013     1     1      544            545        -1     1004           1022
##  5  2013     1     1      554            600        -6      812            837
##  6  2013     1     1      554            558        -4      740            728
##  7  2013     1     1      555            600        -5      913            854
##  8  2013     1     1      557            600        -3      709            723
##  9  2013     1     1      557            600        -3      838            846
## 10  2013     1     1      558            600        -2      753            745
## #  with 336,766 more rows, and 11 more variables: arr_delay <dbl>,
## #   carrier <chr>, flight <int>, tailnum <chr>, origin <chr>, dest <chr>,
## #   air_time <dbl>, distance <dbl>, hour <dbl>, minute <dbl>, time_hour <dttm>

Summarising 
 Multiple Groups

summarise(flights_by_date, Delay_Avg = mean(arr_delay, na.rm = T),
          Distance_Avg = mean(distance),
          Distance_SD = sd(distance),
          Most_Common_Carrier = names(sort(table(carrier)))[1])

Summarising 
 Multiple Groups

## `summarise()` regrouping output by 'month' (override with `.groups` argument)

## # A tibble: 365 x 6
## # Groups:   month [12]
##    month   day Delay_Avg Distance_Avg Distance_SD Most_Common_Carrier
##    <int> <int>     <dbl>        <dbl>       <dbl> <chr>              
##  1     1     1    12.7          1077.        728. HA                 
##  2     1     2    12.7          1053.        722. HA                 
##  3     1     3     5.73         1037.        715. HA                 
##  4     1     4    -1.93         1032.        716. HA                 
##  5     1     5    -1.53         1068.        741. HA                 
##  6     1     6     4.24         1052.        728. HA                 
##  7     1     7    -4.95          998.        719. HA                 
##  8     1     8    -3.23          986.        714. HA                 
##  9     1     9    -0.264         981.        707. HA                 
## 10     1    10    -5.90          993.        718. HA                 
## #  with 355 more rows
…
Combining

flights_with_airlines <- left_join(flights, airlines, by = "carrier")
select(flights_with_airlines, carrier, name)

## # A tibble: 336,776 x 2
##    carrier name                    
##    <chr>   <chr>                   
##  1 UA      United Air Lines Inc.   
##  2 UA      United Air Lines Inc.   
##  3 AA      American Airlines Inc.  
##  4 B6      JetBlue Airways         
##  5 DL      Delta Air Lines Inc.    
##  6 UA      United Air Lines Inc.   
##  7 B6      JetBlue Airways         
##  8 EV      ExpressJet Airlines Inc.
##  9 B6      JetBlue Airways         
## 10 AA      American Airlines Inc.  
## #  with 336,766 more rows
…
Piping 
 Additional Examples

Lets say we wanted to pull out the average of the top 5 longest delayed flights for each carrier for each month.

flights_long_delay <- flights %>%
  group_by(carrier, month) %>%
  arrange(arr_delay) %>%
  top_n(5) %>%
  summarise(Avg_Delay = mean(arr_delay, na.rm = T))

Piping 
 Additional Examples

## # A tibble: 185 x 3
## # Groups:   carrier [16]
##    carrier month Avg_Delay
##    <chr>   <int>     <dbl>
##  1 9E          1     77.6 
##  2 9E          2     -2   
##  3 9E          3     -7   
##  4 9E          4    -14.7 
##  5 9E          5     -0.9 
##  6 9E          6    NaN   
##  7 9E          7     -5.33
##  8 9E          8    -13.6 
##  9 9E          9    -24.8 
## 10 9E         10      1.6 
## #  with 175 more rows
…
